MCMC pipelines • stantargets
…
Finally, we read the summaries of posterior predictive samples.

tar_read(postpred)
#> # A tibble: 100 x 13
#>    variable     mean   median    sd   mad    q5   q95  rhat ess_bulk ess_tail
#>    <chr>       <dbl>    <dbl> <dbl> <dbl> <dbl> <dbl> <dbl>    <dbl>    <dbl>
#>  1 y_rep[1]  0.139    0.164   1.10  1.08  -1.69  1.93  1.00    3227.    3741.
#>  2 y_rep[2]  0.123    0.119   1.05  1.04  -1.59  1.89  1.00    3182.    3929.
#>  3 y_rep[3]  0.0979   0.112   1.04  1.03  -1.58  1.78  1.00    3667.    3810.
#>  4 y_rep[4]  0.0455   0.0525  1.02  1.02  -1.63  1.72  1.00    3775.    3932.
#>  5 y_rep[5] -0.00508 -0.00749 1.00  1.02  -1.64  1.63  1.00    4266.    3665.
#>  6 y_rep[6] -0.0186  -0.0153  0.981 1.02  -1.60  1.54  1.00    4243.    4055.
#>  7 y_rep[7] -0.0438  -0.0377  0.996 0.981 -1.70  1.59  1.00    3814.    3891.
#>  8 y_rep[8] -0.0958  -0.105   1.04  1.03  -1.86  1.66  1.00    3534.    3799.
#>  9 y_rep[9] -0.0952  -0.0987  1.08  1.05  -1.90  1.74  1.00    3226.    3699.
#> 10 y_rep[1… -0.170   -0.170   1.12  1.14  -2.00  1.67  1.00    3389.    3919.
#> # … with 90 more rows, and 3 more variables: .rep <chr>, .file <chr>,
#> #   .name <chr>
…
